{
  "data": [
    {
      "client": "1",
      "employe": "65d4bc750bac16ad81f25386",
      "service": "65d4bd4c0bac16ad81f25399",
      "date": "2024-02-23T08:30:00Z",
      "state": "CREATED",
      "_id": "1",
      "price": 4000,
      "commission": 30
    },
    {
      "client": "1",
      "employe": "65d9c8c41cdc15ebca7818ba",
      "service": "65d4bd4c0bac16ad81f25399",
      "date": "2024-02-23T10:30:00Z",
      "state": "CREATED",
      "_id": "2",
      "price": 4000,
      "commission": 30
    }
  ]
}
